<svg xmlns="http://www.w3.org/2000/svg" id="age-8" viewBox="0 0 24 14">
	<g>
		<path d="M6.9,3.7c0-1.9,1.5-3.1,3.9-3.1c2.4,0,3.9,1.2,3.9,3.1c0,1.5-1,2.5-2.3,2.8c1.6,0.2,2.8,1.4,2.8,3.2c0,2.4-1.6,3.8-4.3,3.8c-2.7,0-4.4-1.4-4.4-3.7c0-1.9,1.2-3,2.8-3.3C7.8,6.1,6.9,5.1,6.9,3.7z M7.2,9.7c0,1.9,1.4,3.1,3.6,3.1c2.2,0,3.6-1.2,3.6-3.1c0-1.8-1.4-2.9-3.6-2.9C8.5,6.8,7.2,7.9,7.2,9.7z M7.7,3.7c0,1.5,1.2,2.4,3.1,2.4c1.9,0,3.1-0.9,3.1-2.5c0-1.6-1.1-2.5-3.1-2.5C8.8,1.2,7.7,2.1,7.7,3.7z"/>
	</g>
	<g>
		<path d="M20.4,7.1h-2.7V6.5h2.7V3.8H21v2.7h2.7v0.6H21v2.7h-0.7V7.1z"/>
	</g>
</svg>
